\relax 
\providecommand\hyper@newdestlabel[2]{}
\citation{overson_developing_2015}
\@writefile{toc}{\contentsline {chapter}{\numberline {2}Enabling Technologies}{3}{chapter.16}}
\@writefile{lof}{\addvspace {10\p@ }}
\@writefile{lot}{\addvspace {10\p@ }}
\newlabel{chap:enabling_technologies}{{2}{3}{Enabling Technologies}{chapter.16}{}}
\@writefile{toc}{\contentsline {section}{\numberline {2.1}Introduction}{3}{section.17}}
\@writefile{toc}{\contentsline {section}{\numberline {2.2}Polymer web components}{3}{section.18}}
\@writefile{toc}{\contentsline {subsection}{\numberline {2.2.1}Element Catalog}{4}{subsection.20}}
\@writefile{lof}{\contentsline {figure}{\numberline {2.1}{\ignorespaces Polymer Catalog\relax }}{4}{figure.caption.21}}
\providecommand*\caption@xref[2]{\@setref\relax\@undefined{#1}}
\newlabel{fig:elementcatalog}{{2.1}{4}{Polymer Catalog\relax }{figure.caption.21}{}}
\citation{teller_data_2013}
\citation{bostock_d3.js}
\@writefile{toc}{\contentsline {section}{\numberline {2.3}D3.js}{5}{section.22}}
\@writefile{toc}{\contentsline {subsection}{\numberline {2.3.1}Selecting Elements}{6}{subsection.23}}
\@writefile{toc}{\contentsline {subsection}{\numberline {2.3.2}Manipulating Data}{6}{subsection.24}}
\citation{gormley_elasticsearch:_2014}
\@writefile{toc}{\contentsline {section}{\numberline {2.4}GeoJSON}{7}{section.25}}
\@writefile{toc}{\contentsline {section}{\numberline {2.5}TopoJSON}{7}{section.27}}
\@writefile{toc}{\contentsline {section}{\numberline {2.6}ElasticSearch}{7}{section.29}}
\@writefile{toc}{\contentsline {subsection}{\numberline {2.6.1}Searching}{8}{subsection.30}}
\@writefile{toc}{\contentsline {subsection}{\numberline {2.6.2}Adding data}{8}{subsection.39}}
\citation{perez_querying}
\@writefile{toc}{\contentsline {section}{\numberline {2.7}SPARQL}{9}{section.65}}
\@setckpt{2-enablingtechnologies}{
\setcounter{page}{10}
\setcounter{equation}{0}
\setcounter{enumi}{0}
\setcounter{enumii}{0}
\setcounter{enumiii}{0}
\setcounter{enumiv}{0}
\setcounter{footnote}{3}
\setcounter{mpfootnote}{0}
\setcounter{part}{0}
\setcounter{chapter}{2}
\setcounter{section}{7}
\setcounter{subsection}{0}
\setcounter{subsubsection}{0}
\setcounter{paragraph}{0}
\setcounter{subparagraph}{0}
\setcounter{figure}{1}
\setcounter{table}{0}
\setcounter{parentequation}{0}
\setcounter{cor}{0}
\setcounter{thm}{0}
\setcounter{ContinuedFloat}{0}
\setcounter{KVtest}{0}
\setcounter{subfigure}{0}
\setcounter{subfigure@save}{0}
\setcounter{lofdepth}{1}
\setcounter{subtable}{0}
\setcounter{subtable@save}{0}
\setcounter{lotdepth}{1}
\setcounter{lstnumber}{8}
\setcounter{Item}{0}
\setcounter{Hfootnote}{3}
\setcounter{bookmark@seq@number}{22}
\setcounter{lstlisting}{0}
\setcounter{section@level}{0}
}
