\relax 
\providecommand\hyper@newdestlabel[2]{}
\citation{gormley_elasticsearch:_2014}
\@writefile{toc}{\contentsline {chapter}{\numberline {3}Architecture}{11}{chapter.74}}
\@writefile{lof}{\addvspace {10\p@ }}
\@writefile{lot}{\addvspace {10\p@ }}
\newlabel{chap:architecture}{{3}{11}{Architecture}{chapter.74}{}}
\@writefile{toc}{\contentsline {section}{\numberline {3.1}Introduction}{11}{section.75}}
\@writefile{toc}{\contentsline {section}{\numberline {3.2}Overview}{11}{section.76}}
\newlabel{sec:overview}{{3.2}{11}{Overview}{section.76}{}}
\citation{luigi}
\citation{corcuera_platas_development_2014}
\citation{roman_gomez_development_2015}
\@writefile{lof}{\contentsline {figure}{\numberline {3.1}{\ignorespaces Architecture\relax }}{12}{figure.caption.79}}
\newlabel{fig:architecture}{{3.1}{12}{Architecture\relax }{figure.caption.79}{}}
\citation{luigi}
\citation{corcuera_platas_development_2014}
\citation{roman_gomez_development_2015}
\@writefile{toc}{\contentsline {section}{\numberline {3.3}Searching and indexing system}{13}{section.80}}
\@writefile{toc}{\contentsline {section}{\numberline {3.4}Orchestrator}{13}{section.81}}
\@writefile{toc}{\contentsline {section}{\numberline {3.5}Analytic services}{13}{section.82}}
\@writefile{lof}{\contentsline {figure}{\numberline {3.2}{\ignorespaces Pipeline Phases\relax }}{14}{figure.caption.84}}
\newlabel{fig:pipeline}{{3.2}{14}{Pipeline Phases\relax }{figure.caption.84}{}}
\@writefile{toc}{\contentsline {section}{\numberline {3.6}Pipeline}{14}{section.83}}
\@writefile{toc}{\contentsline {subsection}{\numberline {3.6.1}Logstash}{14}{subsection.85}}
\@writefile{toc}{\contentsline {subsection}{\numberline {3.6.2}Elasticdump}{14}{subsection.86}}
\newlabel{chap:exportdata}{{3.6.2}{14}{Elasticdump}{subsection.86}{}}
\citation{elasticsearchdump}
\@writefile{toc}{\contentsline {subsection}{\numberline {3.6.3}Sentiment and emotion analysis}{15}{subsection.92}}
\@writefile{toc}{\contentsline {subsubsection}{\numberline {3.6.3.1}FetchDataTask}{15}{subsubsection.93}}
\newlabel{subsec:fetchdata}{{3.6.3.1}{15}{FetchDataTask}{subsubsection.93}{}}
\@writefile{toc}{\contentsline {subsubsection}{\numberline {3.6.3.2}SenpyTask}{16}{subsubsection.130}}
\newlabel{subsec:senpytask}{{3.6.3.2}{16}{SenpyTask}{subsubsection.130}{}}
\@writefile{toc}{\contentsline {subsubsection}{\numberline {3.6.3.3}NerdyTask}{16}{subsubsection.131}}
\@writefile{toc}{\contentsline {subsubsection}{\numberline {3.6.3.4}ElasticsearchTask}{17}{subsubsection.171}}
\newlabel{subsec:elastictask}{{3.6.3.4}{17}{ElasticsearchTask}{subsubsection.171}{}}
\@setckpt{3-architecture}{
\setcounter{page}{19}
\setcounter{equation}{0}
\setcounter{enumi}{0}
\setcounter{enumii}{0}
\setcounter{enumiii}{0}
\setcounter{enumiv}{0}
\setcounter{footnote}{2}
\setcounter{mpfootnote}{0}
\setcounter{part}{0}
\setcounter{chapter}{3}
\setcounter{section}{6}
\setcounter{subsection}{3}
\setcounter{subsubsection}{4}
\setcounter{paragraph}{0}
\setcounter{subparagraph}{0}
\setcounter{figure}{2}
\setcounter{table}{0}
\setcounter{parentequation}{0}
\setcounter{cor}{0}
\setcounter{thm}{0}
\setcounter{ContinuedFloat}{0}
\setcounter{KVtest}{0}
\setcounter{subfigure}{0}
\setcounter{subfigure@save}{0}
\setcounter{lofdepth}{1}
\setcounter{subtable}{0}
\setcounter{subtable@save}{0}
\setcounter{lotdepth}{1}
\setcounter{lstnumber}{3}
\setcounter{Item}{0}
\setcounter{Hfootnote}{5}
\setcounter{bookmark@seq@number}{36}
\setcounter{lstlisting}{0}
\setcounter{section@level}{0}
}
