\relax 
\providecommand\hyper@newdestlabel[2]{}
\@writefile{toc}{\contentsline {chapter}{\numberline {3}Requirement Analysis}{15}{chapter.41}}
\@writefile{lof}{\addvspace {10\p@ }}
\@writefile{lot}{\addvspace {10\p@ }}
\newlabel{chap:requirements}{{3}{15}{Requirement Analysis}{chapter.41}{}}
\@writefile{toc}{\contentsline {section}{\numberline {3.1}Overview}{17}{section.42}}
\@writefile{toc}{\contentsline {section}{\numberline {3.2}Use cases}{17}{section.43}}
\@writefile{toc}{\contentsline {subsection}{\numberline {3.2.1}Actors dictionary}{17}{subsection.44}}
\@writefile{lot}{\contentsline {table}{\numberline {3.1}{\ignorespaces Actors list\relax }}{18}{table.caption.45}}
\newlabel{tab:actores}{{3.1}{18}{Actors list\relax }{table.caption.45}{}}
\@writefile{toc}{\contentsline {subsection}{\numberline {3.2.2}OMR composition and search use case}{19}{subsection.46}}
\@writefile{lof}{\contentsline {figure}{\numberline {3.1}{\ignorespaces Composition and Search use case\relax }}{19}{figure.caption.47}}
\newlabel{fig:pack-uc1}{{3.1}{19}{Composition and Search use case\relax }{figure.caption.47}{}}
\@writefile{toc}{\contentsline {subsubsection}{\numberline {3.2.2.1}Keyword search}{20}{subsubsection.48}}
\newlabel{subsec:keywordsearch}{{3.2.2.1}{20}{Keyword search}{subsubsection.48}{}}
\@writefile{toc}{\contentsline {subsubsection}{\numberline {3.2.2.2}Mash-up browse by category}{21}{subsubsection.50}}
\newlabel{subsec:mashupbrowsebycat}{{3.2.2.2}{21}{Mash-up browse by category}{subsubsection.50}{}}
\@writefile{toc}{\contentsline {subsubsection}{\numberline {3.2.2.3}mash-up search by query}{22}{subsubsection.52}}
\newlabel{subsec:mashupsearchbyquery}{{3.2.2.3}{22}{mash-up search by query}{subsubsection.52}{}}
\@writefile{toc}{\contentsline {subsubsection}{\numberline {3.2.2.4}mash-up compose}{23}{subsubsection.54}}
\newlabel{subsec:mashupcompose}{{3.2.2.4}{23}{mash-up compose}{subsubsection.54}{}}
\@writefile{toc}{\contentsline {subsubsection}{\numberline {3.2.2.5}Ask suggestion}{24}{subsubsection.56}}
\newlabel{subsec:askquestion}{{3.2.2.5}{24}{Ask suggestion}{subsubsection.56}{}}
\@writefile{toc}{\contentsline {subsection}{\numberline {3.2.3}OMR discovery and administration use case}{25}{subsection.58}}
\@writefile{lof}{\contentsline {figure}{\numberline {3.2}{\ignorespaces OMR discovery and administration use case\relax }}{25}{figure.caption.59}}
\newlabel{fig:pack-uc2}{{3.2}{25}{OMR discovery and administration use case\relax }{figure.caption.59}{}}
\@writefile{toc}{\contentsline {subsubsection}{\numberline {3.2.3.1}Automatic mash-up feeding}{26}{subsubsection.60}}
\newlabel{subsec:automatedmashupfeeding}{{3.2.3.1}{26}{Automatic mash-up feeding}{subsubsection.60}{}}
\@writefile{toc}{\contentsline {subsubsection}{\numberline {3.2.3.2}HTML Form discovery and description}{27}{subsubsection.62}}
\newlabel{subsec:formdiscoveryanddescription}{{3.2.3.2}{27}{HTML Form discovery and description}{subsubsection.62}{}}
\@writefile{toc}{\contentsline {subsubsection}{\numberline {3.2.3.3}mash-up registry integration}{28}{subsubsection.64}}
\newlabel{subsec:mashupregistryintegration}{{3.2.3.3}{28}{mash-up registry integration}{subsubsection.64}{}}
\@writefile{toc}{\contentsline {subsubsection}{\numberline {3.2.3.4}API based integration}{29}{subsubsection.66}}
\newlabel{subsec:apibasedintegration}{{3.2.3.4}{29}{API based integration}{subsubsection.66}{}}
\@writefile{toc}{\contentsline {subsubsection}{\numberline {3.2.3.5}Scraping based integration}{30}{subsubsection.68}}
\newlabel{subsec:scrappybasedintegration}{{3.2.3.5}{30}{Scraping based integration}{subsubsection.68}{}}
\@writefile{toc}{\contentsline {subsubsection}{\numberline {3.2.3.6}Manual mash-up management}{31}{subsubsection.70}}
\newlabel{subsec:manualmashupmanagement}{{3.2.3.6}{31}{Manual mash-up management}{subsubsection.70}{}}
\@writefile{toc}{\contentsline {subsubsection}{\numberline {3.2.3.7}Browse pending mash-ups and services}{32}{subsubsection.72}}
\newlabel{subsec:pending}{{3.2.3.7}{32}{Browse pending mash-ups and services}{subsubsection.72}{}}
\@writefile{toc}{\contentsline {subsubsection}{\numberline {3.2.3.8}Validate a mash-up / service}{33}{subsubsection.74}}
\newlabel{subsec:validate}{{3.2.3.8}{33}{Validate a mash-up / service}{subsubsection.74}{}}
\@writefile{toc}{\contentsline {subsubsection}{\numberline {3.2.3.9}Reject a mash-up / service}{34}{subsubsection.76}}
\newlabel{subsec:reject}{{3.2.3.9}{34}{Reject a mash-up / service}{subsubsection.76}{}}
\@writefile{toc}{\contentsline {subsection}{\numberline {3.2.4}Web interface use case}{35}{subsection.78}}
\@writefile{lof}{\contentsline {figure}{\numberline {3.3}{\ignorespaces Web interface use case\relax }}{35}{figure.caption.79}}
\newlabel{fig:pack-uc3}{{3.3}{35}{Web interface use case\relax }{figure.caption.79}{}}
\@writefile{toc}{\contentsline {subsubsection}{\numberline {3.2.4.1}Request available mash-ups}{36}{subsubsection.80}}
\newlabel{subsec:requestavailable}{{3.2.4.1}{36}{Request available mash-ups}{subsubsection.80}{}}
\@writefile{toc}{\contentsline {subsubsection}{\numberline {3.2.4.2}Search mash-ups by query}{37}{subsubsection.82}}
\newlabel{subsec:searchquery}{{3.2.4.2}{37}{Search mash-ups by query}{subsubsection.82}{}}
\@writefile{toc}{\contentsline {subsection}{\numberline {3.2.5}Conclusions}{37}{subsection.84}}
\@setckpt{3-requisites}{
\setcounter{page}{38}
\setcounter{equation}{0}
\setcounter{enumi}{0}
\setcounter{enumii}{0}
\setcounter{enumiii}{0}
\setcounter{enumiv}{0}
\setcounter{footnote}{0}
\setcounter{mpfootnote}{0}
\setcounter{part}{0}
\setcounter{chapter}{3}
\setcounter{section}{2}
\setcounter{subsection}{5}
\setcounter{subsubsection}{0}
\setcounter{paragraph}{0}
\setcounter{subparagraph}{0}
\setcounter{figure}{3}
\setcounter{table}{1}
\setcounter{parentequation}{0}
\setcounter{cor}{0}
\setcounter{thm}{0}
\setcounter{ContinuedFloat}{0}
\setcounter{KVtest}{0}
\setcounter{subfigure}{0}
\setcounter{subfigure@save}{0}
\setcounter{lofdepth}{1}
\setcounter{subtable}{0}
\setcounter{subtable@save}{0}
\setcounter{lotdepth}{1}
\setcounter{lstnumber}{1}
\setcounter{Item}{0}
\setcounter{Hfootnote}{0}
\setcounter{bookmark@seq@number}{49}
\setcounter{lstlisting}{0}
\setcounter{section@level}{0}
}
