\relax 
\providecommand\hyper@newdestlabel[2]{}
\@writefile{toc}{\contentsline {chapter}{\numberline {4}Architecture}{39}{chapter.85}}
\@writefile{lof}{\addvspace {10\p@ }}
\@writefile{lot}{\addvspace {10\p@ }}
\newlabel{chap:architecture}{{4}{39}{Architecture}{chapter.85}{}}
\citation{fernandez2011semantic}
\@writefile{toc}{\contentsline {section}{\numberline {4.1}Introduction}{41}{section.86}}
\citation{fernandez2011semantic}
\@writefile{lof}{\contentsline {figure}{\numberline {4.1}{\ignorespaces General Architecture\relax }}{42}{figure.caption.87}}
\newlabel{fig:ArchitectureGeneral}{{4.1}{42}{General Architecture\relax }{figure.caption.87}{}}
\@writefile{toc}{\contentsline {section}{\numberline {4.2}Automated discovery}{42}{section.88}}
\newlabel{sec:scrappy}{{4.2}{42}{Automated discovery}{section.88}{}}
\@writefile{lof}{\contentsline {figure}{\numberline {4.2}{\ignorespaces Scrappy sequence diagram\relax }}{43}{figure.caption.90}}
\newlabel{fig:scrappysequence}{{4.2}{43}{Scrappy sequence diagram\relax }{figure.caption.90}{}}
\@writefile{lot}{\contentsline {table}{\numberline {4.1}{\ignorespaces Runnable components in OMR\relax }}{44}{table.caption.92}}
\newlabel{tab:omrcomrun}{{4.1}{44}{Runnable components in OMR\relax }{table.caption.92}{}}
\@writefile{toc}{\contentsline {section}{\numberline {4.3}Semantic repository}{44}{section.95}}
\newlabel{sec:omrsesame}{{4.3}{44}{Semantic repository}{section.95}{}}
\citation{Tilo12}
\@writefile{toc}{\contentsline {section}{\numberline {4.4}Ranking module}{45}{section.96}}
\newlabel{sec:rankingmodule}{{4.4}{45}{Ranking module}{section.96}{}}
\@writefile{lof}{\contentsline {figure}{\numberline {4.3}{\ignorespaces Sequence diagram for ranking index generation\relax }}{46}{figure.caption.97}}
\newlabel{fig:rankingsequence}{{4.3}{46}{Sequence diagram for ranking index generation\relax }{figure.caption.97}{}}
\@writefile{toc}{\contentsline {section}{\numberline {4.5}OMR Admin Interface}{46}{section.98}}
\newlabel{sec:omradmin}{{4.5}{46}{OMR Admin Interface}{section.98}{}}
\@writefile{lof}{\contentsline {figure}{\numberline {4.4}{\ignorespaces Simile Exhibit example interface\relax }}{47}{figure.caption.100}}
\newlabel{fig:generatingblocks}{{4.4}{47}{Simile Exhibit example interface\relax }{figure.caption.100}{}}
\@writefile{lof}{\contentsline {figure}{\numberline {4.5}{\ignorespaces OMR Admin Interface architecture\relax }}{47}{figure.caption.102}}
\newlabel{fig:admininterface}{{4.5}{47}{OMR Admin Interface architecture\relax }{figure.caption.102}{}}
\@writefile{toc}{\contentsline {subsection}{\numberline {4.5.1}Main component}{48}{subsection.103}}
\@writefile{lof}{\contentsline {figure}{\numberline {4.6}{\ignorespaces OMR Admin Interface\relax }}{48}{figure.caption.106}}
\newlabel{fig:admininterfacemain}{{4.6}{48}{OMR Admin Interface\relax }{figure.caption.106}{}}
\@writefile{toc}{\contentsline {subsection}{\numberline {4.5.2}Functions library}{48}{subsection.107}}
\newlabel{subsec:functionslibrary}{{4.5.2}{48}{Functions library}{subsection.107}{}}
\@writefile{toc}{\contentsline {subsubsection}{\numberline {4.5.2.1}Facet boxes}{49}{subsubsection.108}}
\@writefile{lol}{\contentsline {lstlisting}{\numberline {4.1}"Creating facet box"}{49}{lstlisting.109}}
\@writefile{lof}{\contentsline {figure}{\numberline {4.7}{\ignorespaces Generating Facet Boxes\relax }}{49}{figure.caption.111}}
\newlabel{fig:generatingblocks}{{4.7}{49}{Generating Facet Boxes\relax }{figure.caption.111}{}}
\@writefile{toc}{\contentsline {subsubsection}{\numberline {4.5.2.2}Result lists}{50}{subsubsection.112}}
\@writefile{lol}{\contentsline {lstlisting}{\numberline {4.2}"Creating result container"}{50}{lstlisting.113}}
\@writefile{toc}{\contentsline {subsubsection}{\numberline {4.5.2.3}Widget or service}{50}{subsubsection.115}}
\@writefile{lol}{\contentsline {lstlisting}{\numberline {4.3}"Creating information view"}{50}{lstlisting.116}}
\@writefile{toc}{\contentsline {subsubsection}{\numberline {4.5.2.4}Generate charts}{50}{subsubsection.120}}
\@writefile{lol}{\contentsline {lstlisting}{\numberline {4.4}"Generating pie charts"}{50}{lstlisting.121}}
\@writefile{lof}{\contentsline {figure}{\numberline {4.8}{\ignorespaces Pie chart\relax }}{51}{figure.caption.129}}
\newlabel{fig:piechart}{{4.8}{51}{Pie chart\relax }{figure.caption.129}{}}
\@writefile{toc}{\contentsline {subsubsection}{\numberline {4.5.2.5}Admin authentication}{51}{subsubsection.131}}
\@writefile{toc}{\contentsline {subsubsection}{\numberline {4.5.2.6}Cache and performance}{51}{subsubsection.133}}
\newlabel{subsubsec:cacheperfomance}{{4.5.2.6}{51}{Cache and performance}{subsubsection.133}{}}
\@writefile{lof}{\contentsline {figure}{\numberline {4.9}{\ignorespaces Sequence diagram for chart generation\relax }}{52}{figure.caption.130}}
\newlabel{fig:chartsequence}{{4.9}{52}{Sequence diagram for chart generation\relax }{figure.caption.130}{}}
\@writefile{lot}{\contentsline {table}{\numberline {4.2}{\ignorespaces Execution query time comparison\relax }}{52}{table.caption.134}}
\newlabel{tab:timecomp}{{4.2}{52}{Execution query time comparison\relax }{table.caption.134}{}}
\@writefile{lof}{\contentsline {figure}{\numberline {4.10}{\ignorespaces Sequence diagram if query is not in cache\relax }}{53}{figure.caption.135}}
\newlabel{fig:cachesequence_a}{{4.10}{53}{Sequence diagram if query is not in cache\relax }{figure.caption.135}{}}
\@writefile{lof}{\contentsline {figure}{\numberline {4.11}{\ignorespaces Sequence diagram if query cached\relax }}{53}{figure.caption.136}}
\newlabel{fig:cachesequence_b}{{4.11}{53}{Sequence diagram if query cached\relax }{figure.caption.136}{}}
\newlabel{lst:cachels}{{4.5}{53}{Cache file list example}{lstlisting.137}{}}
\@writefile{lol}{\contentsline {lstlisting}{\numberline {4.5}Cache file list example}{53}{lstlisting.137}}
\newlabel{lst:cachecat}{{4.6}{53}{Cache file out example}{lstlisting.141}{}}
\@writefile{lol}{\contentsline {lstlisting}{\numberline {4.6}Cache file out example}{53}{lstlisting.141}}
\@writefile{toc}{\contentsline {subsubsection}{\numberline {4.5.2.7}Repository wrapper}{54}{subsubsection.160}}
\@writefile{toc}{\contentsline {subsubsection}{\numberline {4.5.2.8}Sparql Library}{54}{subsubsection.162}}
\newlabel{subsubsec:sparqllibrary}{{4.5.2.8}{54}{Sparql Library}{subsubsection.162}{}}
\newlabel{sparqllibsample}{{4.7}{54}{Sparqllib usage example}{lstlisting.164}{}}
\@writefile{lol}{\contentsline {lstlisting}{\numberline {4.7}Sparqllib usage example}{54}{lstlisting.164}}
\@writefile{lot}{\contentsline {table}{\numberline {4.3}{\ignorespaces Sparqllib output example\relax }}{55}{table.caption.185}}
\newlabel{tab:sparqllibsample}{{4.3}{55}{Sparqllib output example\relax }{table.caption.185}{}}
\@writefile{toc}{\contentsline {subsubsection}{\numberline {4.5.2.9}Validating resource}{56}{subsubsection.186}}
\newlabel{subsubsection:validationresourcearch}{{4.5.2.9}{56}{Validating resource}{subsubsection.186}{}}
\@writefile{lof}{\contentsline {figure}{\numberline {4.12}{\ignorespaces OMR admin top menu\relax }}{56}{figure.caption.187}}
\newlabel{fig:admintopmenu}{{4.12}{56}{OMR admin top menu\relax }{figure.caption.187}{}}
\@writefile{lof}{\contentsline {figure}{\numberline {4.13}{\ignorespaces OMR admin validate and reject buttons\relax }}{56}{figure.caption.188}}
\newlabel{fig:validatebutton}{{4.13}{56}{OMR admin validate and reject buttons\relax }{figure.caption.188}{}}
\@writefile{lof}{\contentsline {figure}{\numberline {4.14}{\ignorespaces Sequence diagram for validating RDF resource\relax }}{57}{figure.caption.189}}
\newlabel{fig:validatesequence}{{4.14}{57}{Sequence diagram for validating RDF resource\relax }{figure.caption.189}{}}
\@writefile{toc}{\contentsline {subsubsection}{\numberline {4.5.2.10}Rejecting resource}{57}{subsubsection.190}}
\@writefile{lof}{\contentsline {figure}{\numberline {4.15}{\ignorespaces OMR admin search box\relax }}{57}{figure.caption.191}}
\newlabel{fig:searchboxadmin}{{4.15}{57}{OMR admin search box\relax }{figure.caption.191}{}}
\@writefile{lof}{\contentsline {figure}{\numberline {4.16}{\ignorespaces Sequence diagram for rejecting RDF resource\relax }}{58}{figure.caption.192}}
\newlabel{fig:rejectsequence}{{4.16}{58}{Sequence diagram for rejecting RDF resource\relax }{figure.caption.192}{}}
\@writefile{toc}{\contentsline {subsubsection}{\numberline {4.5.2.11}Wadl generation}{58}{subsubsection.193}}
\newlabel{lst:wadlsparql}{{4.8}{59}{Retrieving information for WADL with SPARQL}{lstlisting.196}{}}
\@writefile{lol}{\contentsline {lstlisting}{\numberline {4.8}Retrieving information for WADL with SPARQL}{59}{lstlisting.196}}
\newlabel{lst:wadlexample}{{4.9}{59}{WADL example}{lstlisting.205}{}}
\@writefile{lol}{\contentsline {lstlisting}{\numberline {4.9}WADL example}{59}{lstlisting.205}}
\@writefile{lof}{\contentsline {figure}{\numberline {4.17}{\ignorespaces Sequence diagram for WADL file generation\relax }}{60}{figure.caption.237}}
\newlabel{fig:wadlsequence}{{4.17}{60}{Sequence diagram for WADL file generation\relax }{figure.caption.237}{}}
\@writefile{toc}{\contentsline {subsubsection}{\numberline {4.5.2.12}LMF integration}{60}{subsubsection.238}}
\@writefile{toc}{\contentsline {section}{\numberline {4.6}OMR Client Browser}{61}{section.240}}
\newlabel{sec:omrclientbrowser}{{4.6}{61}{OMR Client Browser}{section.240}{}}
\@writefile{toc}{\contentsline {subsection}{\numberline {4.6.1}Back-end}{61}{subsection.244}}
\newlabel{subsec:omrclientback}{{4.6.1}{61}{Back-end}{subsection.244}{}}
\@writefile{lof}{\contentsline {figure}{\numberline {4.18}{\ignorespaces Scrappy sequence diagram\relax }}{62}{figure.caption.242}}
\newlabel{fig:clientsequence}{{4.18}{62}{Scrappy sequence diagram\relax }{figure.caption.242}{}}
\@writefile{lof}{\contentsline {figure}{\numberline {4.19}{\ignorespaces OMR client interface\relax }}{62}{figure.caption.243}}
\newlabel{fig:omrclient}{{4.19}{62}{OMR client interface\relax }{figure.caption.243}{}}
\newlabel{lst:semcore}{{4.10}{63}{Semantic core configuration for LMF using LD Path}{lstlisting.246}{}}
\@writefile{lol}{\contentsline {lstlisting}{\numberline {4.10}Semantic core configuration for LMF using LD Path}{63}{lstlisting.246}}
\@writefile{toc}{\contentsline {subsection}{\numberline {4.6.2}Front-end}{63}{subsection.261}}
\newlabel{subsec:omrclientfront}{{4.6.2}{63}{Front-end}{subsection.261}{}}
\@writefile{toc}{\contentsline {paragraph}{Search fields}{63}{subsection.261}}
\newlabel{lst:sparqlauto}{{4.11}{64}{SPARQL to retrieve all component types}{lstlisting.263}{}}
\@writefile{lol}{\contentsline {lstlisting}{\numberline {4.11}SPARQL to retrieve all component types}{64}{lstlisting.263}}
\@writefile{lof}{\contentsline {figure}{\numberline {4.20}{\ignorespaces Search fields in OMR client interface\relax }}{64}{figure.caption.268}}
\newlabel{fig:searchfields}{{4.20}{64}{Search fields in OMR client interface\relax }{figure.caption.268}{}}
\newlabel{lst:databinding}{{4.12}{64}{Data binding with knockout}{lstlisting.269}{}}
\@writefile{lol}{\contentsline {lstlisting}{\numberline {4.12}Data binding with knockout}{64}{lstlisting.269}}
\@writefile{toc}{\contentsline {paragraph}{Multilingual support}{65}{lstnumber.276}}
\@writefile{toc}{\contentsline {paragraph}{Personalization manual}{65}{lstnumber.276}}
\@writefile{toc}{\contentsline {section}{\numberline {4.7}Conclusions}{65}{section.278}}
\@setckpt{4-architecture}{
\setcounter{page}{66}
\setcounter{equation}{0}
\setcounter{enumi}{0}
\setcounter{enumii}{0}
\setcounter{enumiii}{0}
\setcounter{enumiv}{0}
\setcounter{footnote}{18}
\setcounter{mpfootnote}{0}
\setcounter{part}{0}
\setcounter{chapter}{4}
\setcounter{section}{7}
\setcounter{subsection}{0}
\setcounter{subsubsection}{0}
\setcounter{paragraph}{0}
\setcounter{subparagraph}{0}
\setcounter{figure}{20}
\setcounter{table}{3}
\setcounter{parentequation}{0}
\setcounter{cor}{0}
\setcounter{thm}{0}
\setcounter{ContinuedFloat}{0}
\setcounter{KVtest}{0}
\setcounter{subfigure}{0}
\setcounter{subfigure@save}{0}
\setcounter{lofdepth}{1}
\setcounter{subtable}{0}
\setcounter{subtable@save}{0}
\setcounter{lotdepth}{1}
\setcounter{lstnumber}{8}
\setcounter{Item}{0}
\setcounter{Hfootnote}{18}
\setcounter{bookmark@seq@number}{73}
\setcounter{lstlisting}{12}
\setcounter{section@level}{0}
}
