\relax 
\providecommand\hyper@newdestlabel[2]{}
\@writefile{toc}{\contentsline {chapter}{\numberline {4}Visualisation Server}{21}{chapter.100}}
\@writefile{lof}{\addvspace {10\p@ }}
\@writefile{lot}{\addvspace {10\p@ }}
\newlabel{chap:visualisationserver}{{4}{21}{Visualisation Server}{chapter.100}{}}
\@writefile{toc}{\contentsline {section}{\numberline {4.1}Introduction}{21}{section.101}}
\@writefile{toc}{\contentsline {section}{\numberline {4.2}Analysis}{21}{section.102}}
\citation{iredes}
\citation{bibid}
\citation{bibid}
\citation{bibid}
\@writefile{toc}{\contentsline {subsection}{\numberline {4.2.1}Research other sites}{22}{subsection.103}}
\@writefile{toc}{\contentsline {subsection}{\numberline {4.2.2}Mock-up}{22}{subsection.104}}
\@writefile{lof}{\contentsline {figure}{\numberline {4.1}{\ignorespaces Events tab mock-up\relax }}{22}{figure.caption.105}}
\newlabel{fig:eventstab}{{4.1}{22}{Events tab mock-up\relax }{figure.caption.105}{}}
\@writefile{lof}{\contentsline {figure}{\numberline {4.2}{\ignorespaces Teams tab mock-up\relax }}{23}{figure.caption.106}}
\newlabel{fig:teamstab}{{4.2}{23}{Teams tab mock-up\relax }{figure.caption.106}{}}
\@writefile{lof}{\contentsline {figure}{\numberline {4.3}{\ignorespaces Players tab mock-up\relax }}{23}{figure.caption.107}}
\newlabel{fig:playerstab}{{4.3}{23}{Players tab mock-up\relax }{figure.caption.107}{}}
\@writefile{toc}{\contentsline {section}{\numberline {4.3}Widgets}{24}{section.108}}
\newlabel{subsec:widgets}{{4.3}{24}{Widgets}{section.108}{}}
\@writefile{toc}{\contentsline {subsection}{\numberline {4.3.1}Player Ranking}{24}{subsection.109}}
\newlabel{subsubsec:playerank}{{4.3.1}{24}{Player Ranking}{subsection.109}{}}
\@writefile{toc}{\contentsline {subsection}{\numberline {4.3.2}Team Ranking}{24}{subsection.111}}
\newlabel{subsubsec:teamrank}{{4.3.2}{24}{Team Ranking}{subsection.111}{}}
\@writefile{toc}{\contentsline {subsection}{\numberline {4.3.3}Sentiment Map}{24}{subsection.112}}
\newlabel{subsubsec:emomap}{{4.3.3}{24}{Sentiment Map}{subsection.112}{}}
\@writefile{lof}{\contentsline {figure}{\numberline {4.4}{\ignorespaces Player ranking widget\relax }}{25}{figure.caption.110}}
\newlabel{fig:playerank}{{4.4}{25}{Player ranking widget\relax }{figure.caption.110}{}}
\@writefile{toc}{\contentsline {subsection}{\numberline {4.3.4}Emotion Radar}{25}{subsection.113}}
\newlabel{subsubsec:emoradar}{{4.3.4}{25}{Emotion Radar}{subsection.113}{}}
\@writefile{toc}{\contentsline {subsection}{\numberline {4.3.5}Tweet Chart}{25}{subsection.114}}
\newlabel{subsubsec:tweetchart}{{4.3.5}{25}{Tweet Chart}{subsection.114}{}}
\@writefile{toc}{\contentsline {subsection}{\numberline {4.3.6}Number Widget}{26}{subsection.115}}
\newlabel{subsubsec:numchart}{{4.3.6}{26}{Number Widget}{subsection.115}{}}
\@writefile{toc}{\contentsline {subsection}{\numberline {4.3.7}Sentiment Chart}{26}{subsection.116}}
\newlabel{subsubsec:sentchart}{{4.3.7}{26}{Sentiment Chart}{subsection.116}{}}
\@writefile{toc}{\contentsline {subsection}{\numberline {4.3.8}Top Team}{26}{subsection.117}}
\newlabel{subsec:topteam}{{4.3.8}{26}{Top Team}{subsection.117}{}}
\@writefile{toc}{\contentsline {subsection}{\numberline {4.3.9}Top Player}{27}{subsection.118}}
\@writefile{toc}{\contentsline {section}{\numberline {4.4}Dashboard Tabs}{27}{section.119}}
\@writefile{toc}{\contentsline {subsection}{\numberline {4.4.1}Events tab}{27}{subsection.120}}
\newlabel{subsec:eventstab}{{4.4.1}{27}{Events tab}{subsection.120}{}}
\@writefile{toc}{\contentsline {subsection}{\numberline {4.4.2}Teams tab}{28}{subsection.121}}
\newlabel{subsubsec:teamstab}{{4.4.2}{28}{Teams tab}{subsection.121}{}}
\@writefile{toc}{\contentsline {subsection}{\numberline {4.4.3}Players tab}{28}{subsection.122}}
\@writefile{toc}{\contentsline {subsection}{\numberline {4.4.4}About tab}{29}{subsection.123}}
\@setckpt{4-mapdeveloping}{
\setcounter{page}{30}
\setcounter{equation}{0}
\setcounter{enumi}{0}
\setcounter{enumii}{0}
\setcounter{enumiii}{0}
\setcounter{enumiv}{0}
\setcounter{footnote}{0}
\setcounter{mpfootnote}{0}
\setcounter{part}{0}
\setcounter{chapter}{4}
\setcounter{section}{4}
\setcounter{subsection}{4}
\setcounter{subsubsection}{0}
\setcounter{paragraph}{0}
\setcounter{subparagraph}{0}
\setcounter{figure}{4}
\setcounter{table}{0}
\setcounter{parentequation}{0}
\setcounter{cor}{0}
\setcounter{thm}{0}
\setcounter{ContinuedFloat}{0}
\setcounter{KVtest}{0}
\setcounter{subfigure}{0}
\setcounter{subfigure@save}{0}
\setcounter{lofdepth}{1}
\setcounter{subtable}{0}
\setcounter{subtable@save}{0}
\setcounter{lotdepth}{1}
\setcounter{lstnumber}{3}
\setcounter{Item}{0}
\setcounter{Hfootnote}{1}
\setcounter{bookmark@seq@number}{54}
\setcounter{lstlisting}{0}
\setcounter{section@level}{0}
}
