\relax 
\providecommand\hyper@newdestlabel[2]{}
\@writefile{toc}{\contentsline {chapter}{\numberline {4}Testing}{33}{chapter.159}}
\@writefile{lof}{\addvspace {10\p@ }}
\@writefile{lot}{\addvspace {10\p@ }}
\newlabel{chap:testing}{{4}{33}{Testing}{chapter.159}{}}
\@writefile{toc}{\contentsline {section}{\numberline {4.1}Introduction}{33}{section.160}}
\newlabel{sec:testintro}{{4.1}{33}{Introduction}{section.160}{}}
\@writefile{toc}{\contentsline {section}{\numberline {4.2}Testing}{34}{section.161}}
\newlabel{sec:testing}{{4.2}{34}{Testing}{section.161}{}}
\@writefile{toc}{\contentsline {section}{\numberline {4.3}Conclusions}{34}{section.162}}
\newlabel{sec:testconclusions}{{4.3}{34}{Conclusions}{section.162}{}}
\@setckpt{4-testing}{
\setcounter{page}{35}
\setcounter{equation}{0}
\setcounter{enumi}{2}
\setcounter{enumii}{0}
\setcounter{enumiii}{0}
\setcounter{enumiv}{0}
\setcounter{footnote}{0}
\setcounter{mpfootnote}{0}
\setcounter{part}{0}
\setcounter{chapter}{4}
\setcounter{section}{3}
\setcounter{subsection}{0}
\setcounter{subsubsection}{0}
\setcounter{paragraph}{0}
\setcounter{subparagraph}{0}
\setcounter{figure}{0}
\setcounter{table}{0}
\setcounter{parentequation}{0}
\setcounter{cor}{0}
\setcounter{thm}{0}
\setcounter{ContinuedFloat}{0}
\setcounter{KVtest}{0}
\setcounter{subfigure}{0}
\setcounter{subfigure@save}{0}
\setcounter{lofdepth}{1}
\setcounter{subtable}{0}
\setcounter{subtable@save}{0}
\setcounter{lotdepth}{1}
\setcounter{lstnumber}{32}
\setcounter{Item}{6}
\setcounter{Hfootnote}{1}
\setcounter{bookmark@seq@number}{57}
\setcounter{lstlisting}{0}
\setcounter{section@level}{0}
}
