\relax 
\providecommand\hyper@newdestlabel[2]{}
\@writefile{toc}{\contentsline {chapter}{\numberline {4}Case study}{35}{chapter.160}}
\@writefile{lof}{\addvspace {10\p@ }}
\@writefile{lot}{\addvspace {10\p@ }}
\newlabel{chap:casestudy}{{4}{35}{Case study}{chapter.160}{}}
\@writefile{toc}{\contentsline {section}{\numberline {4.1}Introduction}{35}{section.161}}
\newlabel{sec:testintro}{{4.1}{35}{Introduction}{section.161}{}}
\@writefile{toc}{\contentsline {section}{\numberline {4.2}Main use case}{36}{section.162}}
\newlabel{sec:mainusecase}{{4.2}{36}{Main use case}{section.162}{}}
\@writefile{toc}{\contentsline {subsection}{\numberline {4.2.1}Google Glass case}{36}{subsection.163}}
\newlabel{subsec:gglasscase}{{4.2.1}{36}{Google Glass case}{subsection.163}{}}
\@writefile{toc}{\contentsline {subsection}{\numberline {4.2.2}Smartphone case}{36}{subsection.164}}
\newlabel{subsec:smartphonecase}{{4.2.2}{36}{Smartphone case}{subsection.164}{}}
\@writefile{toc}{\contentsline {section}{\numberline {4.3}Second use case}{37}{section.165}}
\newlabel{sec:secondusecase}{{4.3}{37}{Second use case}{section.165}{}}
\@writefile{lof}{\contentsline {figure}{\numberline {4.1}{\ignorespaces Dashboard\relax }}{37}{figure.caption.166}}
\newlabel{fig:dashboard}{{4.1}{37}{Dashboard\relax }{figure.caption.166}{}}
\@writefile{toc}{\contentsline {section}{\numberline {4.4}Third use case}{37}{section.167}}
\newlabel{sec:thirdusecase}{{4.4}{37}{Third use case}{section.167}{}}
\@writefile{lof}{\contentsline {figure}{\numberline {4.2}{\ignorespaces Permissions page\relax }}{38}{figure.caption.168}}
\newlabel{fig:permissions}{{4.2}{38}{Permissions page\relax }{figure.caption.168}{}}
\@writefile{lof}{\contentsline {figure}{\numberline {4.3}{\ignorespaces User creation\relax }}{38}{figure.caption.169}}
\newlabel{fig:usercreation}{{4.3}{38}{User creation\relax }{figure.caption.169}{}}
\@setckpt{4-usecase}{
\setcounter{page}{39}
\setcounter{equation}{0}
\setcounter{enumi}{2}
\setcounter{enumii}{0}
\setcounter{enumiii}{0}
\setcounter{enumiv}{0}
\setcounter{footnote}{0}
\setcounter{mpfootnote}{0}
\setcounter{part}{0}
\setcounter{chapter}{4}
\setcounter{section}{4}
\setcounter{subsection}{0}
\setcounter{subsubsection}{0}
\setcounter{paragraph}{0}
\setcounter{subparagraph}{0}
\setcounter{figure}{3}
\setcounter{table}{0}
\setcounter{parentequation}{0}
\setcounter{cor}{0}
\setcounter{thm}{0}
\setcounter{ContinuedFloat}{0}
\setcounter{KVtest}{0}
\setcounter{subfigure}{0}
\setcounter{subfigure@save}{0}
\setcounter{lofdepth}{1}
\setcounter{subtable}{0}
\setcounter{subtable@save}{0}
\setcounter{lotdepth}{1}
\setcounter{lstnumber}{32}
\setcounter{Item}{6}
\setcounter{Hfootnote}{1}
\setcounter{bookmark@seq@number}{60}
\setcounter{lstlisting}{0}
\setcounter{section@level}{0}
}
