\relax 
\providecommand\hyper@newdestlabel[2]{}
\citation{overson_developing_2015}
\citation{bostock_d3.js}
\@writefile{toc}{\contentsline {chapter}{\numberline {4}Visualisation Server}{19}{chapter.178}}
\@writefile{lof}{\addvspace {10\p@ }}
\@writefile{lot}{\addvspace {10\p@ }}
\newlabel{chap:visualisationserver}{{4}{19}{Visualisation Server}{chapter.178}{}}
\@writefile{toc}{\contentsline {section}{\numberline {4.1}Introduction}{19}{section.179}}
\@writefile{toc}{\contentsline {section}{\numberline {4.2}Analysis}{19}{section.181}}
\citation{teller_data_2013}
\@writefile{toc}{\contentsline {subsection}{\numberline {4.2.1}Review of online visualisation dashboards for sentiment analysis}{20}{subsection.182}}
\@writefile{toc}{\contentsline {subsection}{\numberline {4.2.2}Mock-up}{20}{subsection.186}}
\@writefile{lof}{\contentsline {figure}{\numberline {4.1}{\ignorespaces Events tab mock-up\relax }}{21}{figure.caption.188}}
\newlabel{fig:eventstab}{{4.1}{21}{Events tab mock-up\relax }{figure.caption.188}{}}
\@writefile{lof}{\contentsline {figure}{\numberline {4.2}{\ignorespaces Teams tab mock-up\relax }}{21}{figure.caption.189}}
\newlabel{fig:teamstab}{{4.2}{21}{Teams tab mock-up\relax }{figure.caption.189}{}}
\@writefile{lof}{\contentsline {figure}{\numberline {4.3}{\ignorespaces Players tab mock-up\relax }}{22}{figure.caption.190}}
\newlabel{fig:playerstab}{{4.3}{22}{Players tab mock-up\relax }{figure.caption.190}{}}
\@writefile{toc}{\contentsline {section}{\numberline {4.3}Widgets}{23}{section.191}}
\newlabel{subsec:widgets}{{4.3}{23}{Widgets}{section.191}{}}
\@writefile{toc}{\contentsline {subsection}{\numberline {4.3.1}Player Ranking}{23}{subsection.192}}
\newlabel{subsubsec:playerank}{{4.3.1}{23}{Player Ranking}{subsection.192}{}}
\@writefile{lof}{\contentsline {figure}{\numberline {4.4}{\ignorespaces Player ranking widget\relax }}{23}{figure.caption.193}}
\newlabel{fig:playerank}{{4.4}{23}{Player ranking widget\relax }{figure.caption.193}{}}
\@writefile{toc}{\contentsline {subsection}{\numberline {4.3.2}Team Ranking}{24}{subsection.194}}
\newlabel{subsubsec:teamrank}{{4.3.2}{24}{Team Ranking}{subsection.194}{}}
\@writefile{toc}{\contentsline {subsection}{\numberline {4.3.3}Sentiment Map}{24}{subsection.195}}
\newlabel{subsubsec:sentmap}{{4.3.3}{24}{Sentiment Map}{subsection.195}{}}
\@writefile{lof}{\contentsline {figure}{\numberline {4.5}{\ignorespaces Map widget\relax }}{24}{figure.caption.196}}
\newlabel{fig:mapwidget}{{4.5}{24}{Map widget\relax }{figure.caption.196}{}}
\@writefile{toc}{\contentsline {subsection}{\numberline {4.3.4}Emotion Map}{25}{subsection.197}}
\newlabel{subsubsec:emomap}{{4.3.4}{25}{Emotion Map}{subsection.197}{}}
\@writefile{toc}{\contentsline {subsection}{\numberline {4.3.5}Emotion Radar}{25}{subsection.198}}
\newlabel{subsubsec:emoradar}{{4.3.5}{25}{Emotion Radar}{subsection.198}{}}
\@writefile{toc}{\contentsline {subsection}{\numberline {4.3.6}Tweet Chart}{25}{subsection.200}}
\newlabel{subsubsec:tweetchart}{{4.3.6}{25}{Tweet Chart}{subsection.200}{}}
\@writefile{lof}{\contentsline {figure}{\numberline {4.6}{\ignorespaces Emotion Radar widget\relax }}{26}{figure.caption.199}}
\newlabel{fig:radarwidget}{{4.6}{26}{Emotion Radar widget\relax }{figure.caption.199}{}}
\@writefile{lof}{\contentsline {figure}{\numberline {4.7}{\ignorespaces Tweet chart widget\relax }}{26}{figure.caption.201}}
\newlabel{fig:tweetchartwidget}{{4.7}{26}{Tweet chart widget\relax }{figure.caption.201}{}}
\@writefile{toc}{\contentsline {subsection}{\numberline {4.3.7}Number Widget}{27}{subsection.202}}
\newlabel{subsubsec:numchart}{{4.3.7}{27}{Number Widget}{subsection.202}{}}
\@writefile{toc}{\contentsline {subsection}{\numberline {4.3.8}Sentiment Chart}{27}{subsection.203}}
\newlabel{subsubsec:sentchart}{{4.3.8}{27}{Sentiment Chart}{subsection.203}{}}
\@writefile{lof}{\contentsline {figure}{\numberline {4.8}{\ignorespaces Sentiment chart widget\relax }}{27}{figure.caption.204}}
\newlabel{fig:sentevol}{{4.8}{27}{Sentiment chart widget\relax }{figure.caption.204}{}}
\@writefile{toc}{\contentsline {subsection}{\numberline {4.3.9}Top Team}{28}{subsection.205}}
\newlabel{subsec:topteam}{{4.3.9}{28}{Top Team}{subsection.205}{}}
\@writefile{lof}{\contentsline {figure}{\numberline {4.9}{\ignorespaces Top team widget\relax }}{28}{figure.caption.206}}
\newlabel{fig:topteamwidget}{{4.9}{28}{Top team widget\relax }{figure.caption.206}{}}
\@writefile{toc}{\contentsline {subsection}{\numberline {4.3.10}Top Player}{28}{subsection.207}}
\@writefile{lof}{\contentsline {figure}{\numberline {4.10}{\ignorespaces Top player widget\relax }}{29}{figure.caption.208}}
\newlabel{fig:topplayerwidget}{{4.10}{29}{Top player widget\relax }{figure.caption.208}{}}
\@writefile{toc}{\contentsline {section}{\numberline {4.4}Dashboard Tabs}{29}{section.209}}
\@writefile{toc}{\contentsline {subsection}{\numberline {4.4.1}Events tab}{29}{subsection.210}}
\newlabel{subsec:eventstab}{{4.4.1}{29}{Events tab}{subsection.210}{}}
\@writefile{toc}{\contentsline {subsection}{\numberline {4.4.2}Teams tab}{30}{subsection.211}}
\newlabel{subsubsec:teamstab}{{4.4.2}{30}{Teams tab}{subsection.211}{}}
\@writefile{toc}{\contentsline {subsection}{\numberline {4.4.3}Players tab}{30}{subsection.212}}
\@writefile{toc}{\contentsline {subsection}{\numberline {4.4.4}SPARQL editor tab}{31}{subsection.213}}
\@setckpt{4-visualisationserver}{
\setcounter{page}{32}
\setcounter{equation}{0}
\setcounter{enumi}{0}
\setcounter{enumii}{0}
\setcounter{enumiii}{0}
\setcounter{enumiv}{0}
\setcounter{footnote}{2}
\setcounter{mpfootnote}{0}
\setcounter{part}{0}
\setcounter{chapter}{4}
\setcounter{section}{4}
\setcounter{subsection}{4}
\setcounter{subsubsection}{0}
\setcounter{paragraph}{0}
\setcounter{subparagraph}{0}
\setcounter{figure}{10}
\setcounter{table}{0}
\setcounter{parentequation}{0}
\setcounter{cor}{0}
\setcounter{thm}{0}
\setcounter{ContinuedFloat}{0}
\setcounter{KVtest}{0}
\setcounter{subfigure}{0}
\setcounter{subfigure@save}{0}
\setcounter{lofdepth}{1}
\setcounter{subtable}{0}
\setcounter{subtable@save}{0}
\setcounter{lotdepth}{1}
\setcounter{lstnumber}{3}
\setcounter{Item}{0}
\setcounter{Hfootnote}{11}
\setcounter{bookmark@seq@number}{57}
\setcounter{lstlisting}{0}
\setcounter{section@level}{0}
}
