\relax 
\providecommand\hyper@newdestlabel[2]{}
\@writefile{toc}{\contentsline {chapter}{\numberline {5}Case study}{33}{chapter.215}}
\@writefile{lof}{\addvspace {10\p@ }}
\@writefile{lot}{\addvspace {10\p@ }}
\newlabel{chap:casestudy}{{5}{33}{Case study}{chapter.215}{}}
\@writefile{toc}{\contentsline {section}{\numberline {5.1}Introduction}{33}{section.216}}
\@writefile{toc}{\contentsline {section}{\numberline {5.2}Collecting data}{33}{section.217}}
\citation{corcuera_platas_development_2014}
\citation{roman_gomez_development_2015}
\@writefile{toc}{\contentsline {section}{\numberline {5.3}Displaying data}{34}{section.218}}
\@writefile{lof}{\contentsline {figure}{\numberline {5.1}{\ignorespaces Events tab\relax }}{35}{figure.caption.219}}
\newlabel{fig:eventtab}{{5.1}{35}{Events tab\relax }{figure.caption.219}{}}
\@writefile{lof}{\contentsline {figure}{\numberline {5.2}{\ignorespaces Teams tab\relax }}{37}{figure.caption.220}}
\newlabel{fig:teamtab}{{5.2}{37}{Teams tab\relax }{figure.caption.220}{}}
\@writefile{lof}{\contentsline {figure}{\numberline {5.3}{\ignorespaces Players tab\relax }}{38}{figure.caption.221}}
\newlabel{fig:playertab}{{5.3}{38}{Players tab\relax }{figure.caption.221}{}}
\@writefile{lof}{\contentsline {figure}{\numberline {5.4}{\ignorespaces SPARQL tab\relax }}{39}{figure.caption.222}}
\newlabel{fig:sparql}{{5.4}{39}{SPARQL tab\relax }{figure.caption.222}{}}
\@writefile{toc}{\contentsline {section}{\numberline {5.4}Conclusions}{39}{section.223}}
\newlabel{sec:conclusions}{{5.4}{39}{Conclusions}{section.223}{}}
\@setckpt{5-usecase}{
\setcounter{page}{40}
\setcounter{equation}{0}
\setcounter{enumi}{0}
\setcounter{enumii}{0}
\setcounter{enumiii}{0}
\setcounter{enumiv}{0}
\setcounter{footnote}{0}
\setcounter{mpfootnote}{0}
\setcounter{part}{0}
\setcounter{chapter}{5}
\setcounter{section}{4}
\setcounter{subsection}{0}
\setcounter{subsubsection}{0}
\setcounter{paragraph}{0}
\setcounter{subparagraph}{0}
\setcounter{figure}{4}
\setcounter{table}{0}
\setcounter{parentequation}{0}
\setcounter{cor}{0}
\setcounter{thm}{0}
\setcounter{ContinuedFloat}{0}
\setcounter{KVtest}{0}
\setcounter{subfigure}{0}
\setcounter{subfigure@save}{0}
\setcounter{lofdepth}{1}
\setcounter{subtable}{0}
\setcounter{subtable@save}{0}
\setcounter{lotdepth}{1}
\setcounter{lstnumber}{3}
\setcounter{Item}{0}
\setcounter{Hfootnote}{11}
\setcounter{bookmark@seq@number}{62}
\setcounter{lstlisting}{0}
\setcounter{section@level}{0}
}
