\relax 
\providecommand\hyper@newdestlabel[2]{}
\@writefile{toc}{\contentsline {chapter}{\numberline {5}Prototype and example usage}{67}{chapter.279}}
\@writefile{lof}{\addvspace {10\p@ }}
\@writefile{lot}{\addvspace {10\p@ }}
\@writefile{toc}{\contentsline {section}{\numberline {5.1}Introduction}{69}{section.280}}
\@writefile{lot}{\contentsline {table}{\numberline {5.1}{\ignorespaces Actors list\relax }}{69}{table.caption.281}}
\newlabel{tab:actoresusecase}{{5.1}{69}{Actors list\relax }{table.caption.281}{}}
\@writefile{lot}{\contentsline {table}{\numberline {5.2}{\ignorespaces Execution enviroment\relax }}{70}{table.caption.282}}
\newlabel{tab:executionenviroment}{{5.2}{70}{Execution enviroment\relax }{table.caption.282}{}}
\@writefile{toc}{\contentsline {section}{\numberline {5.2}Automatic service discovery}{71}{section.283}}
\newlabel{sec:autodiscovery}{{5.2}{71}{Automatic service discovery}{section.283}{}}
\@writefile{lol}{\contentsline {lstlisting}{\numberline {5.1}Scrappy launching}{71}{lstlisting.284}}
\@writefile{lot}{\contentsline {table}{\numberline {5.3}{\ignorespaces Scrappy execution statistics\relax }}{71}{table.caption.288}}
\newlabel{tab:scrappyelapsedtime}{{5.3}{71}{Scrappy execution statistics\relax }{table.caption.288}{}}
\@writefile{lot}{\contentsline {table}{\numberline {5.4}{\ignorespaces OMR components summary\relax }}{71}{table.caption.289}}
\newlabel{tab:omrcomsum}{{5.4}{71}{OMR components summary\relax }{table.caption.289}{}}
\newlabel{lst:fullexamplerdf}{{5.2}{72}{Full RDF of scrapped widget}{lstlisting.291}{}}
\@writefile{lol}{\contentsline {lstlisting}{\numberline {5.2}Full RDF of scrapped widget}{72}{lstlisting.291}}
\@writefile{lof}{\contentsline {figure}{\numberline {5.1}{\ignorespaces Original site and corresponding LiMOn mapping\relax }}{73}{figure.caption.290}}
\newlabel{fig:programmablewebgoogle}{{5.1}{73}{Original site and corresponding LiMOn mapping\relax }{figure.caption.290}{}}
\@writefile{toc}{\contentsline {section}{\numberline {5.3}Ranking algorithm}{75}{section.346}}
\newlabel{lst:runranking}{{5.3}{75}{}{lstlisting.347}{}}
\newlabel{lst:rankingconfigfile}{{5.3}{75}{Ranking algorithm configuration file}{lstlisting.349}{}}
\@writefile{lol}{\contentsline {lstlisting}{\numberline {5.3}Ranking algorithm configuration file}{75}{lstlisting.349}}
\@writefile{lot}{\contentsline {table}{\numberline {5.5}{\ignorespaces Ranking algorithm execution statistics\relax }}{75}{table.caption.358}}
\newlabel{tab:rankingelapsedtime}{{5.5}{75}{Ranking algorithm execution statistics\relax }{table.caption.358}{}}
\newlabel{lst:rdfranking}{{5.4}{75}{Ranking algorithm output}{lstlisting.359}{}}
\@writefile{lol}{\contentsline {lstlisting}{\numberline {5.4}Ranking algorithm output}{75}{lstlisting.359}}
\@writefile{toc}{\contentsline {section}{\numberline {5.4}OMR administrative interface}{76}{section.363}}
\@writefile{lof}{\contentsline {figure}{\numberline {5.2}{\ignorespaces Main view OMR Administrator\relax }}{76}{figure.caption.366}}
\newlabel{fig:omradminmainview}{{5.2}{76}{Main view OMR Administrator\relax }{figure.caption.366}{}}
\@writefile{lof}{\contentsline {figure}{\numberline {5.3}{\ignorespaces OMR admin top menu\relax }}{76}{figure.caption.367}}
\newlabel{fig:topmenuomr}{{5.3}{76}{OMR admin top menu\relax }{figure.caption.367}{}}
\@writefile{toc}{\contentsline {subsection}{\numberline {5.4.1}Available general actions}{77}{subsection.368}}
\newlabel{subsec:omravailableactions}{{5.4.1}{77}{Available general actions}{subsection.368}{}}
\@writefile{toc}{\contentsline {subsubsection}{\numberline {5.4.1.1}Filtering}{77}{subsubsection.369}}
\@writefile{lof}{\contentsline {figure}{\numberline {5.4}{\ignorespaces Filtering by LiMOn properties\relax }}{77}{figure.caption.370}}
\newlabel{fig:limonfiltering}{{5.4}{77}{Filtering by LiMOn properties\relax }{figure.caption.370}{}}
\@writefile{lof}{\contentsline {subfigure}{\numberline{(a)}{\ignorespaces {limon:protocol}}}{77}{subfigure.4.1}}
\@writefile{lof}{\contentsline {subfigure}{\numberline{(b)}{\ignorespaces {limon:dataFormat}}}{77}{subfigure.4.2}}
\@writefile{toc}{\contentsline {subsubsection}{\numberline {5.4.1.2}Searching}{77}{subsubsection.373}}
\@writefile{lof}{\contentsline {figure}{\numberline {5.5}{\ignorespaces OMR admin search box\relax }}{77}{figure.caption.374}}
\newlabel{fig:omradminsearchbox}{{5.5}{77}{OMR admin search box\relax }{figure.caption.374}{}}
\@writefile{toc}{\contentsline {subsubsection}{\numberline {5.4.1.3}Obtaining help}{78}{subsubsection.375}}
\@writefile{lof}{\contentsline {figure}{\numberline {5.6}{\ignorespaces OMR admin help\relax }}{78}{figure.caption.376}}
\newlabel{fig:omradminhelp}{{5.6}{78}{OMR admin help\relax }{figure.caption.376}{}}
\@writefile{toc}{\contentsline {subsubsection}{\numberline {5.4.1.4}Statistics}{78}{subsubsection.377}}
\newlabel{subsec:appendixstatistics}{{5.4.1.4}{78}{Statistics}{subsubsection.377}{}}
\@writefile{lof}{\contentsline {figure}{\numberline {5.7}{\ignorespaces OMR see statistics\relax }}{78}{figure.caption.378}}
\newlabel{fig:omradminseestatistics}{{5.7}{78}{OMR see statistics\relax }{figure.caption.378}{}}
\@writefile{toc}{\contentsline {subsection}{\numberline {5.4.2}Reject a resource}{78}{subsection.379}}
\@writefile{lof}{\contentsline {figure}{\numberline {5.8}{\ignorespaces Bad charset encoding in widget description\relax }}{79}{figure.caption.380}}
\newlabel{fig:badencoding}{{5.8}{79}{Bad charset encoding in widget description\relax }{figure.caption.380}{}}
\@writefile{toc}{\contentsline {subsection}{\numberline {5.4.3}Validating resource example}{79}{subsection.381}}
\@writefile{lof}{\contentsline {figure}{\numberline {5.9}{\ignorespaces Google maps api service in admin interface\relax }}{79}{figure.caption.382}}
\newlabel{fig:googlemapsapi}{{5.9}{79}{Google maps api service in admin interface\relax }{figure.caption.382}{}}
\@writefile{toc}{\contentsline {section}{\numberline {5.5}Web developer interface}{80}{section.383}}
\newlabel{lst:runranking}{{5.5}{80}{}{lstlisting.384}{}}
\@writefile{lof}{\contentsline {figure}{\numberline {5.10}{\ignorespaces OMR Developer interface main\relax }}{80}{figure.caption.386}}
\newlabel{fig:searchservice}{{5.10}{80}{OMR Developer interface main\relax }{figure.caption.386}{}}
\@writefile{lof}{\contentsline {figure}{\numberline {5.11}{\ignorespaces Search service button\relax }}{81}{figure.caption.387}}
\newlabel{fig:searchservice}{{5.11}{81}{Search service button\relax }{figure.caption.387}{}}
\@writefile{lof}{\contentsline {figure}{\numberline {5.12}{\ignorespaces Select saved search or create a new one\relax }}{81}{figure.caption.388}}
\newlabel{fig:selectsearch}{{5.12}{81}{Select saved search or create a new one\relax }{figure.caption.388}{}}
\@writefile{lof}{\contentsline {figure}{\numberline {5.13}{\ignorespaces Select filters for the search\relax }}{81}{figure.caption.389}}
\newlabel{fig:selectfilters}{{5.13}{81}{Select filters for the search\relax }{figure.caption.389}{}}
\@writefile{lof}{\contentsline {figure}{\numberline {5.14}{\ignorespaces Show results\relax }}{82}{figure.caption.390}}
\newlabel{fig:selectsearch}{{5.14}{82}{Show results\relax }{figure.caption.390}{}}
\@writefile{lof}{\contentsline {figure}{\numberline {5.15}{\ignorespaces Found services by the semantic module\relax }}{82}{figure.caption.391}}
\newlabel{fig:foundservices}{{5.15}{82}{Found services by the semantic module\relax }{figure.caption.391}{}}
\@writefile{lof}{\contentsline {figure}{\numberline {5.16}{\ignorespaces Extended service info\relax }}{83}{figure.caption.392}}
\newlabel{fig:extendedinfo}{{5.16}{83}{Extended service info\relax }{figure.caption.392}{}}
\@writefile{toc}{\contentsline {section}{\numberline {5.6}Conclusions}{83}{section.393}}
\@setckpt{5-use-case}{
\setcounter{page}{84}
\setcounter{equation}{0}
\setcounter{enumi}{0}
\setcounter{enumii}{0}
\setcounter{enumiii}{0}
\setcounter{enumiv}{0}
\setcounter{footnote}{0}
\setcounter{mpfootnote}{0}
\setcounter{part}{0}
\setcounter{chapter}{5}
\setcounter{section}{6}
\setcounter{subsection}{0}
\setcounter{subsubsection}{0}
\setcounter{paragraph}{0}
\setcounter{subparagraph}{0}
\setcounter{figure}{16}
\setcounter{table}{5}
\setcounter{parentequation}{0}
\setcounter{cor}{0}
\setcounter{thm}{0}
\setcounter{ContinuedFloat}{0}
\setcounter{KVtest}{0}
\setcounter{subfigure}{0}
\setcounter{subfigure@save}{2}
\setcounter{lofdepth}{1}
\setcounter{subtable}{0}
\setcounter{subtable@save}{0}
\setcounter{lotdepth}{1}
\setcounter{lstnumber}{2}
\setcounter{Item}{0}
\setcounter{Hfootnote}{18}
\setcounter{bookmark@seq@number}{87}
\setcounter{lstlisting}{4}
\setcounter{section@level}{0}
}
