\relax 
\providecommand\hyper@newdestlabel[2]{}
\@writefile{toc}{\contentsline {chapter}{\numberline {6}Conclusions and future work}{41}{chapter.224}}
\@writefile{lof}{\addvspace {10\p@ }}
\@writefile{lot}{\addvspace {10\p@ }}
\newlabel{chap:conclusions}{{6}{41}{Conclusions and future work}{chapter.224}{}}
\@writefile{toc}{\contentsline {section}{\numberline {6.1}Introduction}{41}{section.225}}
\@writefile{toc}{\contentsline {section}{\numberline {6.2}Conclusions}{41}{section.226}}
\newlabel{sec:conconclusions}{{6.2}{41}{Conclusions}{section.226}{}}
\@writefile{toc}{\contentsline {section}{\numberline {6.3}Achieved goals}{42}{section.227}}
\newlabel{sec:achievedgoals}{{6.3}{42}{Achieved goals}{section.227}{}}
\@writefile{toc}{\contentsline {section}{\numberline {6.4}Problems faced}{42}{section.228}}
\newlabel{sec:problemsfaced}{{6.4}{42}{Problems faced}{section.228}{}}
\@writefile{toc}{\contentsline {section}{\numberline {6.5}Future work}{43}{section.229}}
\newlabel{sec:futurework}{{6.5}{43}{Future work}{section.229}{}}
\@setckpt{6-conclusions}{
\setcounter{page}{44}
\setcounter{equation}{0}
\setcounter{enumi}{0}
\setcounter{enumii}{0}
\setcounter{enumiii}{0}
\setcounter{enumiv}{0}
\setcounter{footnote}{0}
\setcounter{mpfootnote}{0}
\setcounter{part}{0}
\setcounter{chapter}{6}
\setcounter{section}{5}
\setcounter{subsection}{0}
\setcounter{subsubsection}{0}
\setcounter{paragraph}{0}
\setcounter{subparagraph}{0}
\setcounter{figure}{0}
\setcounter{table}{0}
\setcounter{parentequation}{0}
\setcounter{cor}{0}
\setcounter{thm}{0}
\setcounter{ContinuedFloat}{0}
\setcounter{KVtest}{0}
\setcounter{subfigure}{0}
\setcounter{subfigure@save}{0}
\setcounter{lofdepth}{1}
\setcounter{subtable}{0}
\setcounter{subtable@save}{0}
\setcounter{lotdepth}{1}
\setcounter{lstnumber}{3}
\setcounter{Item}{0}
\setcounter{Hfootnote}{11}
\setcounter{bookmark@seq@number}{68}
\setcounter{lstlisting}{0}
\setcounter{section@level}{0}
}
