\relax 
\providecommand\hyper@newdestlabel[2]{}
\@writefile{toc}{\contentsline {chapter}{\numberline {5}Prototype and example usage}{73}{chapter.331}}
\@writefile{lof}{\addvspace {10\p@ }}
\@writefile{lot}{\addvspace {10\p@ }}
\@writefile{toc}{\contentsline {section}{\numberline {5.1}Introduction}{75}{section.332}}
\@writefile{lot}{\contentsline {table}{\numberline {5.1}{\ignorespaces Actors list\relax }}{75}{table.caption.333}}
\newlabel{tab:actoresusecase}{{5.1}{75}{Actors list\relax }{table.caption.333}{}}
\@writefile{lot}{\contentsline {table}{\numberline {5.2}{\ignorespaces Execution enviroment\relax }}{76}{table.caption.334}}
\newlabel{tab:executionenviroment}{{5.2}{76}{Execution enviroment\relax }{table.caption.334}{}}
\@writefile{toc}{\contentsline {section}{\numberline {5.2}Automatic service discovery}{77}{section.335}}
\newlabel{sec:autodiscovery}{{5.2}{77}{Automatic service discovery}{section.335}{}}
\@writefile{lol}{\contentsline {lstlisting}{\numberline {5.1}Scrappy launching}{77}{lstlisting.336}}
\@writefile{lot}{\contentsline {table}{\numberline {5.3}{\ignorespaces Scrappy execution statistics\relax }}{77}{table.caption.340}}
\newlabel{tab:scrappyelapsedtime}{{5.3}{77}{Scrappy execution statistics\relax }{table.caption.340}{}}
\@writefile{lot}{\contentsline {table}{\numberline {5.4}{\ignorespaces OMR components summary\relax }}{77}{table.caption.341}}
\newlabel{tab:omrcomsum}{{5.4}{77}{OMR components summary\relax }{table.caption.341}{}}
\newlabel{lst:fullexamplerdf}{{5.2}{78}{Full RDF of scrapped widget}{lstlisting.343}{}}
\@writefile{lol}{\contentsline {lstlisting}{\numberline {5.2}Full RDF of scrapped widget}{78}{lstlisting.343}}
\@writefile{lof}{\contentsline {figure}{\numberline {5.1}{\ignorespaces Original site and corresponding LiMOn mapping\relax }}{79}{figure.caption.342}}
\newlabel{fig:programmablewebgoogle}{{5.1}{79}{Original site and corresponding LiMOn mapping\relax }{figure.caption.342}{}}
\@writefile{toc}{\contentsline {section}{\numberline {5.3}Ranking algorithm}{81}{section.398}}
\newlabel{lst:runranking}{{5.3}{81}{}{lstlisting.399}{}}
\newlabel{lst:rankingconfigfile}{{5.3}{81}{Ranking algorithm configuration file}{lstlisting.401}{}}
\@writefile{lol}{\contentsline {lstlisting}{\numberline {5.3}Ranking algorithm configuration file}{81}{lstlisting.401}}
\@writefile{lot}{\contentsline {table}{\numberline {5.5}{\ignorespaces Ranking algorithm execution statistics\relax }}{81}{table.caption.410}}
\newlabel{tab:rankingelapsedtime}{{5.5}{81}{Ranking algorithm execution statistics\relax }{table.caption.410}{}}
\newlabel{lst:rdfranking}{{5.4}{81}{Ranking algorithm output}{lstlisting.411}{}}
\@writefile{lol}{\contentsline {lstlisting}{\numberline {5.4}Ranking algorithm output}{81}{lstlisting.411}}
\@writefile{toc}{\contentsline {section}{\numberline {5.4}OMR administrative interface}{82}{section.415}}
\@writefile{lof}{\contentsline {figure}{\numberline {5.2}{\ignorespaces Main view OMR Administrator\relax }}{82}{figure.caption.418}}
\newlabel{fig:omradminmainview}{{5.2}{82}{Main view OMR Administrator\relax }{figure.caption.418}{}}
\@writefile{lof}{\contentsline {figure}{\numberline {5.3}{\ignorespaces OMR admin top menu\relax }}{82}{figure.caption.419}}
\newlabel{fig:topmenuomr}{{5.3}{82}{OMR admin top menu\relax }{figure.caption.419}{}}
\@writefile{toc}{\contentsline {subsection}{\numberline {5.4.1}Available general actions}{83}{subsection.420}}
\newlabel{subsec:omravailableactions}{{5.4.1}{83}{Available general actions}{subsection.420}{}}
\@writefile{toc}{\contentsline {subsubsection}{\numberline {5.4.1.1}Filtering}{83}{subsubsection.421}}
\@writefile{lof}{\contentsline {figure}{\numberline {5.4}{\ignorespaces Filtering by LiMOn properties\relax }}{83}{figure.caption.422}}
\newlabel{fig:limonfiltering}{{5.4}{83}{Filtering by LiMOn properties\relax }{figure.caption.422}{}}
\@writefile{lof}{\contentsline {subfigure}{\numberline{(a)}{\ignorespaces {limon:protocol}}}{83}{subfigure.4.1}}
\@writefile{lof}{\contentsline {subfigure}{\numberline{(b)}{\ignorespaces {limon:dataFormat}}}{83}{subfigure.4.2}}
\@writefile{toc}{\contentsline {subsubsection}{\numberline {5.4.1.2}Searching}{83}{subsubsection.425}}
\@writefile{lof}{\contentsline {figure}{\numberline {5.5}{\ignorespaces OMR admin search box\relax }}{83}{figure.caption.426}}
\newlabel{fig:omradminsearchbox}{{5.5}{83}{OMR admin search box\relax }{figure.caption.426}{}}
\@writefile{toc}{\contentsline {subsubsection}{\numberline {5.4.1.3}Obtaining help}{84}{subsubsection.427}}
\@writefile{lof}{\contentsline {figure}{\numberline {5.6}{\ignorespaces OMR admin help\relax }}{84}{figure.caption.428}}
\newlabel{fig:omradminhelp}{{5.6}{84}{OMR admin help\relax }{figure.caption.428}{}}
\@writefile{toc}{\contentsline {subsubsection}{\numberline {5.4.1.4}Statistics}{84}{subsubsection.429}}
\newlabel{subsec:appendixstatistics}{{5.4.1.4}{84}{Statistics}{subsubsection.429}{}}
\@writefile{lof}{\contentsline {figure}{\numberline {5.7}{\ignorespaces OMR see statistics\relax }}{84}{figure.caption.430}}
\newlabel{fig:omradminseestatistics}{{5.7}{84}{OMR see statistics\relax }{figure.caption.430}{}}
\@writefile{toc}{\contentsline {subsection}{\numberline {5.4.2}Reject a resource}{84}{subsection.431}}
\@writefile{lof}{\contentsline {figure}{\numberline {5.8}{\ignorespaces Bad charset encoding in widget description\relax }}{85}{figure.caption.432}}
\newlabel{fig:badencoding}{{5.8}{85}{Bad charset encoding in widget description\relax }{figure.caption.432}{}}
\@writefile{toc}{\contentsline {subsection}{\numberline {5.4.3}Validating resource example}{85}{subsection.433}}
\@writefile{lof}{\contentsline {figure}{\numberline {5.9}{\ignorespaces Google maps api service in admin interface\relax }}{85}{figure.caption.434}}
\newlabel{fig:googlemapsapi}{{5.9}{85}{Google maps api service in admin interface\relax }{figure.caption.434}{}}
\@writefile{toc}{\contentsline {section}{\numberline {5.5}Web developer interface}{86}{section.435}}
\newlabel{lst:runranking}{{5.5}{86}{}{lstlisting.436}{}}
\@writefile{lof}{\contentsline {figure}{\numberline {5.10}{\ignorespaces OMR Developer interface main\relax }}{86}{figure.caption.438}}
\newlabel{fig:searchservice}{{5.10}{86}{OMR Developer interface main\relax }{figure.caption.438}{}}
\@writefile{lof}{\contentsline {figure}{\numberline {5.11}{\ignorespaces Search service button\relax }}{87}{figure.caption.439}}
\newlabel{fig:searchservice}{{5.11}{87}{Search service button\relax }{figure.caption.439}{}}
\@writefile{lof}{\contentsline {figure}{\numberline {5.12}{\ignorespaces Select saved search or create a new one\relax }}{87}{figure.caption.440}}
\newlabel{fig:selectsearch}{{5.12}{87}{Select saved search or create a new one\relax }{figure.caption.440}{}}
\@writefile{lof}{\contentsline {figure}{\numberline {5.13}{\ignorespaces Select filters for the search\relax }}{87}{figure.caption.441}}
\newlabel{fig:selectfilters}{{5.13}{87}{Select filters for the search\relax }{figure.caption.441}{}}
\@writefile{lof}{\contentsline {figure}{\numberline {5.14}{\ignorespaces Show results\relax }}{88}{figure.caption.442}}
\newlabel{fig:selectsearch}{{5.14}{88}{Show results\relax }{figure.caption.442}{}}
\@writefile{lof}{\contentsline {figure}{\numberline {5.15}{\ignorespaces Found services by the semantic module\relax }}{88}{figure.caption.443}}
\newlabel{fig:foundservices}{{5.15}{88}{Found services by the semantic module\relax }{figure.caption.443}{}}
\@writefile{lof}{\contentsline {figure}{\numberline {5.16}{\ignorespaces Extended service info\relax }}{89}{figure.caption.444}}
\newlabel{fig:extendedinfo}{{5.16}{89}{Extended service info\relax }{figure.caption.444}{}}
\@writefile{toc}{\contentsline {section}{\numberline {5.6}Conclusions}{89}{section.445}}
\@setckpt{6-use-case}{
\setcounter{page}{90}
\setcounter{equation}{0}
\setcounter{enumi}{0}
\setcounter{enumii}{0}
\setcounter{enumiii}{0}
\setcounter{enumiv}{0}
\setcounter{footnote}{0}
\setcounter{mpfootnote}{0}
\setcounter{part}{0}
\setcounter{chapter}{5}
\setcounter{section}{6}
\setcounter{subsection}{0}
\setcounter{subsubsection}{0}
\setcounter{paragraph}{0}
\setcounter{subparagraph}{0}
\setcounter{figure}{16}
\setcounter{table}{5}
\setcounter{parentequation}{0}
\setcounter{cor}{0}
\setcounter{thm}{0}
\setcounter{ContinuedFloat}{0}
\setcounter{KVtest}{0}
\setcounter{subfigure}{0}
\setcounter{subfigure@save}{2}
\setcounter{lofdepth}{1}
\setcounter{subtable}{0}
\setcounter{subtable@save}{0}
\setcounter{lotdepth}{1}
\setcounter{lstnumber}{2}
\setcounter{Item}{0}
\setcounter{Hfootnote}{27}
\setcounter{bookmark@seq@number}{81}
\setcounter{lstlisting}{4}
\setcounter{section@level}{0}
}
