\relax 
\providecommand\hyper@newdestlabel[2]{}
\providecommand\HyperFirstAtBeginDocument{\AtBeginDocument}
\HyperFirstAtBeginDocument{\ifx\hyper@anchor\@undefined
\global\let\oldcontentsline\contentsline
\gdef\contentsline#1#2#3#4{\oldcontentsline{#1}{#2}{#3}}
\global\let\oldnewlabel\newlabel
\gdef\newlabel#1#2{\newlabelxx{#1}#2}
\gdef\newlabelxx#1#2#3#4#5#6{\oldnewlabel{#1}{{#2}{#3}}}
\AtEndDocument{\ifx\hyper@anchor\@undefined
\let\contentsline\oldcontentsline
\let\newlabel\oldnewlabel
\fi}
\fi}
\global\let\hyper@last\relax 
\gdef\HyperFirstAtBeginDocument#1{#1}
\providecommand\HyField@AuxAddToFields[1]{}
\providecommand\HyField@AuxAddToCoFields[2]{}
\@input{0-preamble.aux}
\@input{A-resumen.aux}
\@input{B-abstract.aux}
\@input{D-agradecimientos.aux}
\@input{E-contents.aux}
\@input{1-introduction.aux}
\@input{2-enablingtechnologies.aux}
\@input{3-architecture.aux}
\@input{4-visualisationserver.aux}
\@input{5-usecase.aux}
\@input{6-conclusions.aux}
\bibstyle{plain}
\bibdata{bibliografia/ref}
\@writefile{toc}{\contentsline {chapter}{Bibliography}{44}{section*.230}}
\bibcite{bostock_d3.js}{1}
\bibcite{corcuera_platas_development_2014}{2}
\bibcite{gormley_elasticsearch:_2014}{3}
\bibcite{overson_developing_2015}{4}
\bibcite{perez_querying}{5}
\bibcite{roman_gomez_development_2015}{6}
\bibcite{luigi}{7}
\bibcite{elasticsearchdump}{8}
\bibcite{teller_data_2013}{9}
